<?xml version="1.0" encoding="UTF-8"?>
<!DOCTYPE svg PUBLIC "-//W3C//DTD SVG 1.1//EN" "http://www.w3.org/Graphics/SVG/1.1/DTD/svg11.dtd">
<svg version="1.1" xmlns="http://www.w3.org/2000/svg" xmlns:xlink="http://www.w3.org/1999/xlink" x="0" y="0" width="100" height="23" viewBox="0, 0, 100, 23">
  <g id="Background">
    <rect x="0" y="0" width="100" height="23" fill="#000000" fill-opacity="0"/>
  </g>
  <g id="Layer_1">
    <path d="M93.605,22.42 C95.67,22.42 96.871,21.586 97.398,20.575 L97.5,22.127 L99.946,22.127 L99.946,16.138 L94.074,16.138 L94.074,18.291 L96.841,18.291 L96.841,18.423 C96.798,19.243 95.846,20.033 94.469,20.033 C92.8,20.033 91.907,18.906 91.907,16.973 C91.907,15.011 92.8,13.839 94.44,13.839 C95.582,13.839 96.256,14.411 96.505,15.363 L99.99,14.733 C99.492,12.653 97.398,11.439 94.469,11.439 C90.75,11.439 88.423,13.737 88.423,17.018 C88.423,20.267 90.355,22.42 93.605,22.42 M82.471,18.496 L80.89,18.496 L80.89,22.127 L77.551,22.127 L77.551,11.731 L83.482,11.731 C86.483,11.731 87.743,13.122 87.743,15.069 C87.743,16.314 87.113,17.486 85.722,18.042 L88.02,22.127 L84.39,22.127 z M80.89,16.402 L82.706,16.402 C83.76,16.402 84.228,15.904 84.228,15.128 C84.228,14.382 83.775,13.928 82.706,13.928 L80.89,13.928 z M70.576,19.799 L70.576,17.954 L75.876,17.954 L75.876,15.743 L70.576,15.743 L70.576,14.059 L76.125,14.059 L76.125,11.732 L67.237,11.732 L67.237,22.127 L76.227,22.127 L76.227,19.799 z M66.134,19.14 C66.134,20.81 64.919,22.127 62.357,22.127 L55.694,22.127 L55.694,11.732 L62.269,11.732 C64.626,11.732 65.885,12.712 65.885,14.338 C65.885,15.45 65.197,16.343 63.85,16.651 C65.329,16.871 66.134,17.764 66.134,19.14 M59.033,13.898 L59.033,15.831 L61.2,15.831 C61.976,15.831 62.357,15.421 62.357,14.836 C62.357,14.264 61.976,13.898 61.2,13.898 z M62.605,18.862 C62.605,18.218 62.137,17.823 61.332,17.823 L59.033,17.823 L59.033,19.96 L61.332,19.96 C62.181,19.96 62.605,19.492 62.605,18.862 M44.895,19.945 L44.895,22.127 L54.677,22.127 L54.677,19.755 L49.054,19.755 L54.442,13.913 L54.442,11.732 L45.1,11.732 L45.1,14.118 L50.313,14.118 z M33.515,11.732 L33.515,18.086 C33.515,20.751 35.463,22.42 38.831,22.42 C42.184,22.42 44.131,20.751 44.131,18.101 L44.131,11.732 L40.793,11.732 L40.793,17.837 C40.793,19.052 40.046,19.799 38.831,19.799 C37.557,19.799 36.869,19.052 36.869,17.837 L36.869,11.732 z M26.774,19.799 L26.774,17.954 L32.074,17.954 L32.074,15.743 L26.774,15.743 L26.774,14.059 L32.323,14.059 L32.323,11.732 L23.435,11.732 L23.435,22.127 L32.426,22.127 L32.426,19.799 z M16.855,18.496 L15.274,18.496 L15.274,22.127 L11.935,22.127 L11.935,11.731 L17.865,11.731 C20.867,11.731 22.126,13.122 22.126,15.069 C22.126,16.314 21.497,17.486 20.105,18.042 L22.404,22.127 L18.773,22.127 z M15.274,16.402 L17.089,16.402 C18.144,16.402 18.612,15.904 18.612,15.128 C18.612,14.382 18.158,13.928 17.089,13.928 L15.274,13.928 z M7.257,11.731 L3.524,15.801 L3.524,11.731 L0.185,11.731 L0.185,22.127 L3.524,22.127 L3.524,19.433 L4.841,18.057 L7.462,22.127 L11.255,22.127 L7.199,15.948 L11.123,11.731 z M64.531,0.08 L62.7,10.476 L71.691,10.476 L72.101,8.148 L66.449,8.148 L66.786,6.303 L72.086,6.303 L72.467,4.092 L67.167,4.092 L67.474,2.408 L73.023,2.408 L73.419,0.08 z M50.985,10.476 L54.045,10.476 L54.045,5.673 L54.045,4.194 L54.089,4.194 C54.235,4.546 54.587,5.088 54.807,5.483 L58.379,10.476 L61.747,10.476 L61.747,0.08 L58.687,0.08 L58.687,4.926 L58.687,6.347 L58.643,6.347 C58.467,5.951 58.174,5.453 57.91,5.029 L54.528,0.08 L50.985,0.08 z M45.971,10.476 L49.309,10.476 L49.309,0.08 L45.971,0.08 z M44.856,7.489 C44.856,9.158 43.641,10.476 41.078,10.476 L34.416,10.476 L34.416,0.08 L40.991,0.08 C43.348,0.08 44.607,1.061 44.607,2.686 C44.607,3.799 43.919,4.692 42.572,5 C44.051,5.219 44.856,6.112 44.856,7.489 M37.755,2.247 L37.755,4.18 L39.922,4.18 C40.697,4.18 41.078,3.77 41.078,3.184 C41.078,2.613 40.697,2.247 39.922,2.247 z M41.327,7.211 C41.327,6.566 40.859,6.171 40.054,6.171 L37.755,6.171 L37.755,8.309 L40.054,8.309 C40.903,8.309 41.327,7.84 41.327,7.211 M27.871,6.845 L26.289,6.845 L26.289,10.476 L22.951,10.476 L22.951,0.08 L28.881,0.08 C31.883,0.08 33.142,1.471 33.142,3.418 C33.142,4.663 32.512,5.834 31.121,6.39 L33.42,10.476 L29.789,10.476 z M26.289,4.751 L28.105,4.751 C29.159,4.751 29.628,4.253 29.628,3.477 C29.628,2.73 29.174,2.276 28.105,2.276 L26.289,2.276 z M11.008,0.08 L11.008,6.435 C11.008,9.099 12.956,10.769 16.323,10.769 C19.676,10.769 21.624,9.099 21.624,6.449 L21.624,0.08 L18.285,0.08 L18.285,6.185 C18.285,7.401 17.539,8.148 16.323,8.148 C15.049,8.148 14.362,7.401 14.362,6.185 L14.362,0.08 z M9.949,0.08 L9.949,2.671 L6.648,2.671 L6.648,10.476 L3.31,10.476 L3.31,2.671 L0.01,2.671 L0.01,0.08 z" fill="#FFFFFF"/>
  </g>
</svg>
