<?xml version="1.0" encoding="utf-8"?>
<!-- Generator: Adobe Illustrator 21.1.0, SVG Export Plug-In . SVG Version: 6.00 Build 0)  -->
<svg version="1.1" id="Mailchimp" xmlns="http://www.w3.org/2000/svg" xmlns:xlink="http://www.w3.org/1999/xlink" x="0px" y="0px"
	 viewBox="0 0 160 168" style="enable-background:new 0 0 160 168;" xml:space="preserve">
	 <style type="text/css">
	 	path {fill:#222222;}
	 </style>
<g>
	<path d="M75.8,55.9c0.2-0.1,0.3-0.3,0.5-0.4l0.8-0.6L71.3,50l0.3,2.1L75.8,55.9z"/>
	<path d="M117.9,96.1L117.9,96.1c-0.5-1.2-1.5-2-2.9-2.3c-0.4-2-1-3-1.1-3.1c0.2-0.3,0.5-0.5,0.5-0.6c1.9-2.3,0.7-5.7-2.5-6.5
		c-1.8-1.7-3.4-2.5-4.7-3.2c-1.3-0.6-0.8-0.3-2-0.9c-0.3-1.5-0.4-5.2-0.9-7.7c-0.5-2.2-1.4-3.9-2.8-5c-0.6-1.2-1.3-2.5-2.3-3.3
		c4.4-6.8,5.6-13.5,2.3-17c-1.4-1.7-3.6-2.5-6.1-2.5c-3.6,0-8.1,1.5-12.6,4.2l-3-2.4C67.3,36,31.9,79.5,44.4,89l3.2,2.5
		c-2,5.6,0.8,12.4,6.7,14.5c1.2,0.5,2.7,0.7,4.2,0.6c0,0,9.4,17.4,29.4,17.4c23.1,0,29-22.6,29.1-22.8
		C117,101.2,118.9,98.4,117.9,96.1z M45.4,86.1L45.4,86.1c-2.5-4.3,1.9-13.1,5-18.1C58.2,55.7,71.1,46,77,47.4l1.6-0.6l4.4,3.7
		c3-1.8,6.9-3.7,10.5-4c-2.2,0.5-4.9,1.6-8.1,3.6c-0.1,0-7.5,5.1-12,9.6C70.9,62.1,61,74,61,74c1.8-3.4,3-5.1,5.9-8.7
		c1.7-2.1,3.4-4,5.2-5.9c0.8-0.8,1.6-1.6,2.5-2.5c0.3-0.2,0.6-0.5,0.8-0.7c-1.1,0.7-3.7,2.6-5.1,3.8c-7.6,6.2-14.9,16-17.6,25.5h0.1
		c-1.4,0.8-2.7,2-3.9,3.6C48.8,89.1,45.8,86.9,45.4,86.1z M57.7,104C57.7,104,57.7,104,57.7,104L57.7,104
		C57.7,104,57.7,104,57.7,104c-4.5,0-8.1-3.8-8.1-8.5c0-4.7,3.6-8.5,8.1-8.5c1.2,0,2.3,0.2,3.2,0.7c0,0,1.7,0.9,2.2,5
		c0.5-1.3,0.8-2.3,0.8-2.3c0.6,1.8,0.9,3.6,0.8,5.5c0.5-0.6,1-1.8,1-1.8C66.6,99.2,62.8,104,57.7,104z M67.7,73.9l-0.1-0.2
		c0.4-0.5,0.7-0.9,1.1-1.4c1.5-2.2,4.8-6.3,10.1-9.4c-0.6-0.1-2,0.1-2.2,0.1c1.4-1.2,4-2,5.8-2.3c-0.5-0.3-1.8-0.4-2.4-0.4
		c-0.2,0-0.2,0-0.4,0c1.7-1,4.8-1.5,7.6-1c-0.4-0.5-1.2-0.9-1.8-1l-0.2-0.1l0.2,0c1.7-0.3,3.7,0,5.2,0.7c-0.2-0.5-0.6-0.9-0.9-1.2
		l-0.2-0.2c1.6,0.4,3.2,1,4.4,1.9c-0.2-0.3-0.6-0.9-0.8-1.2c1.5,0.5,3.3,1.5,4.1,3.2l0,0.1c-3-2.3-11.7-1.6-20.4,4
		c-3.4,2.1-6,4.5-8.1,6.9C68.1,73.3,67.7,73.9,67.7,73.9z M114.4,100.5c-0.1,0.2-1.2,6.1-7.5,11.1c-7.9,6.2-18.3,5.6-22.2,2.1
		c-2.1-2-3-4.8-3-4.8s-0.2,1.6-0.3,2.2c-1.6-2.7-1.5-6-1.5-6s-0.8,1.5-1.2,2.4c-1.1-3-0.5-6-0.5-6l-0.9,1.4c0,0-0.5-3.4,0.6-6.2
		c1.2-3,3.3-5.2,3.8-5.5c-1.7-0.5-3.6-2-3.6-2s0.8,0,1.3-0.1c0,0-3.3-2.4-4-6.1c0.5,0.6,1.5,1.2,1.5,1.2c-0.3-1-0.5-3.2-0.2-5.2
		c0.6-4,3.9-6.7,7.8-6.7c4,0,6.7,0.9,10.1-2.2c0.7-0.6,1.2-1.2,2.2-1.4c0.1,0,0.4-0.1,0.9-0.1c0.5,0,1.1,0.1,1.5,0.4
		c1.8,1.1,2.2,4,2.5,6c0.7,7.8,0.4,6.3,3.5,8c1.5,0.8,3.2,1.4,5.1,3.5v0c1.6,0,2.4,1.3,1.7,2.2c-5.4,6.4-13,9.5-21.3,9.8l-1.1,0
		c-3.4,0.1-4.5,4.5-2.3,7.1c1.3,1.7,4,2.2,6.1,2.2c9.2,0.2,18.5-6.3,20.1-9.9l0.1-0.2c-0.3,0.4-9.3,8.8-20.2,8.5c0,0-1.2,0-2.3-0.3
		c-1.5-0.4-2.6-1-3-2.5c0.9,0.2,2,0.3,3.4,0.3c7.8,0,13.5-3.6,13-3.7h-0.1c-0.9,0.2-10.3,3.9-16.3,2c0-0.2,0-0.4,0.1-0.5
		c0.5-1.8,1.5-1.5,3-1.6l-0.3,0.4c5.5-0.2,9.8-1.6,13.2-3.1c3.5-1.7,6.1-3.8,7.1-4.9c1.2,2.1,1.2,4.8,1.2,4.8s0.5-0.2,1.1-0.2
		C115.5,96.8,116,98.6,114.4,100.5z"/>
	<path d="M59.8,94.4c-0.2-0.1-0.2-0.2-0.3-0.4c-0.1-0.3,0-0.5,0.2-0.7c0.2-0.1,0.4-0.2,0.4-0.3c0-0.1-0.2-0.2-0.4-0.2l0.1-0.1
		c-0.2,0-0.6,0.1-0.8,0.4c-0.4,0.5-0.5,1.3,0.1,2.1c0.8,0.8,1.9,1,2,2c0,0.2,0,0.3,0,0.5c0,0.2-0.1,0.4-0.1,0.5
		c-0.2,0.8-1,1.7-2.2,1.7h-0.5c-0.2,0-0.3,0-0.4,0c-0.1,0-0.1,0-0.1,0c-0.1,0.2,0.5,0.9,1.7,0.9h0.1c1.7,0,3.1-1.8,2.8-3.7
		C62.1,95.3,60.4,94.9,59.8,94.4z"/>
	<path d="M58.1,91.3c1.3,0,2.2,0.6,2.7,1.3c0.4,0.6,0.2,1,0.5,1.1c0,0,0.1,0.1,0.1,0.1s0.1,0,0.1,0c0.2-0.1,0.3-0.5,0.4-0.8
		c0-0.6-0.3-1.4-0.8-1.9c-0.6-0.7-1.5-1.2-2.6-1.4c-0.2,0-0.5,0-0.8,0h0c-0.7,0-1.2,0.1-1.4,0.2c-0.1,0-0.3,0.1-0.5,0.1
		c-2.5,1-3.7,3.5-3.1,6c0.1,0.6,0.4,1.3,0.8,1.7c0.2,0.3,0.5,0.4,0.6,0.4c0.2,0,0.3-0.2,0.2-0.5c0-0.1-0.4-0.7-0.5-1.8
		c0-1.1,0.2-2.3,0.9-3.2c0.5-0.6,1.2-0.9,1.2-1l0,0l0.3-0.2l0.1,0c0.3-0.1,0.1-0.1,0.5-0.1h0.1c0.3-0.1,0.6-0.1,0.9-0.1H58.1z"/>
	<path d="M89.3,85.4c0.2,0,0.3,0,0.5,0h0c0.2,0,0.3,0,0.3-0.1c0.1-0.2-0.8-0.9-2-0.9l-0.2,0.1c-0.2,0-0.4,0-0.6,0.1l-0.5,0.1
		c-0.1,0-0.2,0-0.2,0c-0.4,0.2-0.8,0.4-1,0.7c-0.4,0.4-0.5,0.8-0.4,0.8h0.1c0.1,0,0.3-0.1,0.7-0.2c1.1-0.4,1.9-0.5,2.7-0.5
		C88.8,85.4,89,85.4,89.3,85.4z"/>
	<path d="M96.1,85.7c0.3,0.1,0.5,0.2,0.8,0.2c0.4,0,0.7-0.1,0.8-0.4c0.3-0.5-0.1-1.1-0.7-1.5c-0.3-0.1-0.5-0.2-0.8-0.2l0,0
		c-0.4,0-0.7,0.2-0.8,0.4C95.1,84.7,95.4,85.4,96.1,85.7z"/>
	<path d="M99.5,83.3c-0.1,0.7,0.2,1.2,0.7,1.3c0,0,0.1,0.1,0.1,0.1c0.5,0,0.8-0.4,0.9-1c0.1-0.6-0.2-1.2-0.7-1.3c0,0-0.1,0-0.1,0
		l0.1-0.1C100,82.3,99.6,82.7,99.5,83.3z"/>
	<path d="M86.5,82.6c0.8,0,1.6,0.2,2.5,0.6c0.5,0.2,1,0.4,1.2,0.4c0.1,0,0.1,0,0.1,0c0.1-0.1,0.1-0.3-0.1-0.5
		c-0.5-0.6-1.3-1.2-2.1-1.5c-0.6-0.2-1.2-0.3-1.8-0.3l0.1-0.1c-1.2,0-2.5,0.5-3.5,1.2c-0.8,0.6-1,1.2-0.8,1.3h0.1
		c0.2,0,0.6-0.1,1.2-0.3C84.7,82.8,85.6,82.6,86.5,82.6L86.5,82.6z"/>
	<path d="M97.8,80.1c0.9-0.1,1.8,0.1,2.6,0.5c-0.1-2.2-1.3-4.7-2.3-4.3c-0.6,0.2-0.7,1.2-0.6,1.8C97.4,78.8,97.5,79.4,97.8,80.1
		L97.8,80.1z"/>
	<path d="M78.5,53.5c0.3-0.3,0.8-0.6,1.2-0.9h0.1l-3.7-1.1L78.5,53.5L78.5,53.5z"/>
	<path d="M81.6,51.3L81.6,51.3l-1.8-1.5l0.6,2.2C80.8,51.9,81.2,51.6,81.6,51.3z"/>
	<polygon points="76.7,50.2 76.7,50.2 77.8,50.5 77,47.4 76.4,48.9 	"/>
</g>
</svg>
