<svg viewBox="38.947 125.754 252.512 41.279" 
	xmlns="http://www.w3.org/2000/svg" 
	xmlns:bx="https://boxy-svg.com">
	<defs>
	</defs>
	<path d="M 44.13 160.878 L 59.92 160.878 C 69.83 160.878 76.3 154.708 76.3 145.588 C 76.3 136.688 70.04 131.058 60.04 131.058 L 44.13 131.058 L 44.13 160.878 Z M 53.7 154.328 L 53.7 137.608 L 59.08 137.608 C 63.74 137.608 66.3 140.928 66.3 145.718 C 66.3 150.588 63.66 154.328 58.91 154.328 L 53.7 154.328 ZM 89.523 154.198 L 89.523 148.908 L 104.733 148.908 L 104.733 142.568 L 89.523 142.568 L 89.523 137.738 L 105.443 137.738 L 105.443 131.058 L 79.953 131.058 L 79.953 160.878 L 105.733 160.878 L 105.733 154.198 L 89.523 154.198 ZM 119.549 160.878 L 131.019 160.878 L 142.699 131.058 L 132.239 131.058 L 126.229 149.038 C 125.769 150.588 125.519 151.638 125.349 152.818 L 125.179 152.818 C 125.009 151.638 124.759 150.588 124.299 149.038 L 118.339 131.058 L 107.839 131.058 L 119.549 160.878 ZM 145.469 160.878 L 161.259 160.878 C 171.169 160.878 177.639 154.708 177.639 145.588 C 177.639 136.688 171.379 131.058 161.379 131.058 L 145.469 131.058 L 145.469 160.878 Z M 155.039 154.328 L 155.039 137.608 L 160.419 137.608 C 165.079 137.608 167.639 140.928 167.639 145.718 C 167.639 150.588 164.999 154.328 160.249 154.328 L 155.039 154.328 ZM 202.962 160.878 L 212.872 160.878 L 200.942 131.058 L 189.062 131.058 L 177.092 160.878 L 187.002 160.878 L 189.062 154.958 L 200.902 154.958 L 202.962 160.878 Z M 191.202 148.828 L 193.262 142.898 C 194.052 140.798 194.602 139.288 194.942 137.148 L 195.022 137.148 C 195.402 139.288 195.942 140.798 196.742 142.898 L 198.802 148.828 L 191.202 148.828 ZM 219.586 160.878 L 229.206 160.878 L 229.206 150.838 L 240.966 131.058 L 230.926 131.058 L 225.346 141.518 C 224.836 142.358 224.626 143.028 224.506 143.658 L 224.416 143.658 C 224.296 143.028 224.086 142.358 223.576 141.518 L 218.116 131.058 L 207.786 131.058 L 219.586 150.838 L 219.586 160.878 Z" transform="matrix(1, 0, 0, 1, 0, 0)" style="fill: rgb(1, 30, 255); white-space: pre;"></path>
	<path d="M 314.759 159.408 C 315.819 159.108 316.309 158.278 316.309 157.408 C 316.309 156.308 315.669 154.948 313.239 154.948 L 310.029 154.948 L 310.029 164.178 L 313.509 164.178 C 315.849 164.178 316.569 162.828 316.569 161.638 C 316.569 160.408 315.869 159.598 314.759 159.408 Z M 313.239 155.988 C 314.739 155.988 315.089 156.768 315.089 157.498 C 315.089 158.128 314.829 158.948 313.239 158.948 L 311.269 158.948 L 311.269 155.988 L 313.239 155.988 Z M 313.449 163.138 L 311.269 163.138 L 311.269 159.988 L 313.579 159.988 C 314.839 159.988 315.349 160.668 315.349 161.528 C 315.349 162.358 314.889 163.138 313.449 163.138 ZM 323.462 160.468 C 323.462 158.518 322.442 157.518 320.692 157.518 C 318.832 157.518 317.742 158.838 317.742 161.008 C 317.742 163.148 318.842 164.338 320.702 164.338 C 322.012 164.338 322.962 163.708 323.422 162.528 L 322.512 162.128 C 322.222 162.918 321.612 163.358 320.782 163.358 C 319.622 163.358 318.852 162.528 318.842 161.248 L 323.462 161.248 L 323.462 160.468 Z M 322.342 160.358 L 318.842 160.358 C 318.872 159.138 319.522 158.388 320.662 158.388 C 321.732 158.388 322.342 159.018 322.342 160.208 L 322.342 160.358 ZM 326.306 159.158 L 326.306 157.678 L 325.276 157.678 L 325.276 164.178 L 326.386 164.178 L 326.386 161.398 C 326.386 160.618 326.406 159.748 327.036 159.118 C 327.346 158.808 327.786 158.618 328.466 158.618 L 328.516 158.618 L 328.516 157.538 C 328.436 157.518 328.356 157.518 328.276 157.518 C 327.296 157.518 326.616 158.248 326.306 159.158 ZM 331.112 154.748 L 330.012 154.748 L 330.012 164.178 L 331.112 164.178 L 331.112 154.748 ZM 333.437 156.468 L 334.697 156.468 L 334.697 155.078 L 333.437 155.078 L 333.437 156.468 Z M 333.517 164.178 L 334.627 164.178 L 334.627 157.678 L 333.517 157.678 L 333.517 164.178 ZM 336.961 164.178 L 338.071 164.178 L 338.071 160.788 C 338.071 159.338 338.731 158.468 339.811 158.468 C 340.761 158.468 341.241 159.058 341.241 160.198 L 341.241 164.178 L 342.341 164.178 L 342.341 160.138 C 342.341 158.388 341.601 157.498 340.171 157.498 C 339.141 157.498 338.431 157.978 338.001 158.968 L 338.001 157.678 L 336.961 157.678 L 336.961 164.178 Z" transform="matrix(1, 0, 0, 1, -54.68614196777344, -20.6234130859375)" style="fill: rgb(51, 51, 51); white-space: pre;"></path>
	<path d="M 261.389 150.6 L 261.389 149.56 L 255.669 149.56 L 255.669 158.79 L 256.909 158.79 L 256.909 154.58 L 261.169 154.58 L 261.169 153.54 L 256.909 153.54 L 256.909 150.6 L 261.389 150.6 ZM 264.493 158.95 C 265.563 158.95 266.383 158.44 266.683 157.61 C 266.693 158.02 266.733 158.45 266.783 158.79 L 267.943 158.79 C 267.783 158.28 267.723 157.59 267.723 156.59 L 267.723 154.84 C 267.723 152.94 266.943 152.13 265.163 152.13 C 263.633 152.13 262.593 153 262.503 154.33 L 263.693 154.33 C 263.743 153.51 264.283 153.04 265.173 153.04 C 266.173 153.04 266.603 153.52 266.603 154.72 L 266.603 154.82 L 265.393 154.97 C 264.323 155.1 263.703 155.25 263.213 155.5 C 262.623 155.83 262.303 156.38 262.303 157.03 C 262.303 158.19 263.173 158.95 264.493 158.95 Z M 264.743 158.04 C 263.953 158.04 263.473 157.65 263.473 157.01 C 263.473 156.37 263.883 156.03 264.843 155.89 L 266.613 155.63 L 266.613 155.96 C 266.613 157.22 265.873 158.04 264.743 158.04 ZM 270.919 153.77 L 270.919 152.29 L 269.889 152.29 L 269.889 158.79 L 270.999 158.79 L 270.999 156.01 C 270.999 155.23 271.019 154.36 271.649 153.73 C 271.959 153.42 272.399 153.23 273.079 153.23 L 273.129 153.23 L 273.129 152.15 C 273.049 152.13 272.969 152.13 272.889 152.13 C 271.909 152.13 271.229 152.86 270.919 153.77 ZM 276.865 158.95 C 278.705 158.95 279.895 157.66 279.895 155.54 C 279.895 153.42 278.705 152.13 276.865 152.13 C 275.035 152.13 273.845 153.42 273.845 155.54 C 273.845 157.66 275.035 158.95 276.865 158.95 Z M 276.865 157.98 C 275.695 157.98 275.015 157.15 275.015 155.54 C 275.015 153.93 275.695 153.1 276.865 153.1 C 278.035 153.1 278.725 153.93 278.725 155.54 C 278.725 157.15 278.035 157.98 276.865 157.98 Z" transform="matrix(1, 0, 0, 1, 0, 0)" style="fill: rgb(51, 51, 51); white-space: pre;"></path>
	<rect x="245.928" y="130.514" width="3.149" height="31.066" style=""></rect>
</svg>