<?xml version="1.0" encoding="UTF-8"?>
<svg width="811px" height="85px" viewBox="0 0 811 85" version="1.1" 
    xmlns="http://www.w3.org/2000/svg" 
    xmlns:xlink="http://www.w3.org/1999/xlink">
    <!-- Generator: Sketch 52.4 (67378) - http://www.bohemiancoding.com/sketch -->
    <title>Artboard</title>
    <desc>Created with Sketch.</desc>
    <g id="Artboard" stroke="none" stroke-width="1" fill="none" fill-rule="evenodd">
        <g id="Group" transform="translate(0.000000, -23.000000)" fill="#000000">
            <path d="M6.868,102 L6.868,30.29 L45.147,30.29 C69.185,30.29 84.234,43.824 84.234,65.236 C84.234,87.153 68.68,102 44.844,102 L6.868,102 Z M29.896,86.244 L42.42,86.244 C53.833,86.244 60.196,77.255 60.196,65.539 C60.196,54.025 54.035,46.046 42.824,46.046 L29.896,46.046 L29.896,86.244 Z M116.049,85.941 L155.035,85.941 L155.035,102 L93.021,102 L93.021,30.29 L154.328,30.29 L154.328,46.349 L116.049,46.349 L116.049,57.964 L152.611,57.964 L152.611,73.215 L116.049,73.215 L116.049,85.941 Z M188.264,102 L160.085,30.29 L185.335,30.29 L199.677,73.518 C200.788,77.255 201.394,79.78 201.798,82.608 L202.202,82.608 C202.606,79.78 203.212,77.255 204.323,73.518 L218.766,30.29 L243.915,30.29 L215.837,102 L188.264,102 Z M250.581,102 L250.581,30.29 L288.86,30.29 C312.898,30.29 327.947,43.824 327.947,65.236 C327.947,87.153 312.393,102 288.557,102 L250.581,102 Z M273.609,86.244 L286.133,86.244 C297.546,86.244 303.909,77.255 303.909,65.539 C303.909,54.025 297.748,46.046 286.537,46.046 L273.609,46.046 L273.609,86.244 Z M388.85,102 L383.901,87.759 L355.419,87.759 L350.47,102 L326.634,102 L355.419,30.29 L384.002,30.29 L412.686,102 L388.85,102 Z M360.57,73.013 L378.851,73.013 L373.902,58.772 C371.983,53.722 370.67,50.086 369.761,44.935 L369.559,44.935 C368.751,50.086 367.438,53.722 365.519,58.772 L360.57,73.013 Z M428.846,102 L428.846,77.861 L400.465,30.29 L425.311,30.29 L438.441,55.439 C439.653,57.459 440.158,59.075 440.461,60.59 L440.663,60.59 C440.966,59.075 441.471,57.459 442.683,55.439 L456.116,30.29 L480.255,30.29 L451.975,77.861 L451.975,102 L428.846,102 Z M488.739,67.256 L485.81,58.974 C492.375,57.56 494.496,55.035 494.496,50.591 L494.496,50.187 L484.396,50.187 L484.396,30.29 L505.808,30.29 L505.808,49.177 C505.808,57.661 501.162,65.135 488.739,67.256 Z M532.27,102 L532.27,58.368 C528.937,61.297 523.887,62.408 518.433,62.408 L514.696,62.408 L514.696,43.319 L517.019,43.319 C526.917,43.016 532.674,39.683 536.108,31.805 L554.591,31.805 L554.591,102 L532.27,102 Z M599.031,30.29 C621.453,30.29 634.078,42.309 634.078,65.539 C634.078,90.688 621.958,103.919 598.728,103.919 C581.861,103.919 570.145,96.748 567.317,83.921 L589.133,80.891 C590.446,84.931 594.284,87.86 599.435,87.86 C607.616,87.86 612.262,82.608 612.767,72.205 C608.525,76.043 602.061,77.861 594.284,77.861 C576.609,77.861 566.307,68.67 566.307,54.53 C566.307,39.784 579.033,30.29 599.031,30.29 Z M599.132,63.115 C605.091,63.115 609.939,60.59 612.565,56.247 C611.656,49.48 607.212,45.137 599.637,45.137 C592.668,45.137 588.325,48.571 588.325,54.227 C588.325,59.277 592.567,63.115 599.132,63.115 Z" fill="#011eff" id="DEVDAY’19"></path>
            <path d="M726.704,44.788 C729.764,45.328 731.708,47.56 731.708,50.98 C731.708,54.256 729.728,58 723.248,58 L713.6,58 L713.6,32.44 L722.492,32.44 C729.224,32.44 730.988,36.22 730.988,39.244 C730.988,41.656 729.62,43.96 726.704,44.788 Z M722.492,35.32 L717.02,35.32 L717.02,43.528 L722.492,43.528 C726.884,43.528 727.604,41.26 727.604,39.496 C727.604,37.48 726.632,35.32 722.492,35.32 Z M723.068,55.12 C727.064,55.12 728.324,52.96 728.324,50.656 C728.324,48.28 726.92,46.408 723.428,46.408 L717.02,46.408 L717.02,55.12 L723.068,55.12 Z M750.788,47.74 L750.788,49.9 L738.008,49.9 C738.044,53.428 740.168,55.732 743.372,55.732 C745.676,55.732 747.368,54.508 748.16,52.312 L750.68,53.428 C749.42,56.704 746.792,58.432 743.156,58.432 C738.008,58.432 734.948,55.156 734.948,49.216 C734.948,43.204 737.972,39.568 743.12,39.568 C747.98,39.568 750.788,42.34 750.788,47.74 Z M747.692,47.416 L747.692,47.02 C747.692,43.708 746,41.98 743.048,41.98 C739.88,41.98 738.08,44.032 738.008,47.416 L747.692,47.416 Z M758.672,44.104 C759.536,41.584 761.408,39.568 764.144,39.568 C764.36,39.568 764.576,39.568 764.792,39.604 L764.792,42.592 L764.648,42.592 C762.776,42.592 761.552,43.132 760.688,43.996 C758.96,45.724 758.888,48.136 758.888,50.296 L758.888,58 L755.828,58 L755.828,40 L758.672,40 L758.672,44.104 Z M771.992,31.9 L771.992,58 L768.932,58 L768.932,31.9 L771.992,31.9 Z M778.436,36.652 L778.436,32.8 L781.928,32.8 L781.928,36.652 L778.436,36.652 Z M778.652,58 L778.652,40 L781.712,40 L781.712,58 L778.652,58 Z M788.192,58 L788.192,40 L791.072,40 L791.072,43.564 C792.26,40.828 794.24,39.496 797.084,39.496 C801.044,39.496 803.096,41.98 803.096,46.804 L803.096,58 L800.036,58 L800.036,46.984 C800.036,43.816 798.704,42.196 796.076,42.196 C793.088,42.196 791.252,44.608 791.252,48.604 L791.252,58 L788.192,58 Z M729.44,79.32 L717.02,79.32 L717.02,87.456 L728.828,87.456 L728.828,90.336 L717.02,90.336 L717.02,102 L713.6,102 L713.6,76.44 L729.44,76.44 L729.44,79.32 Z M738.044,102.432 C734.372,102.432 731.96,100.344 731.96,97.14 C731.96,95.34 732.86,93.792 734.48,92.892 C735.848,92.208 737.576,91.776 740.528,91.416 L743.876,91.02 L743.876,90.732 C743.876,87.42 742.688,86.088 739.916,86.088 C737.468,86.088 735.956,87.384 735.812,89.652 L732.536,89.652 C732.788,85.98 735.668,83.568 739.88,83.568 C744.812,83.568 746.972,85.8 746.972,91.056 L746.972,95.916 C746.972,98.688 747.152,100.596 747.584,102 L744.38,102 C744.236,101.064 744.128,99.876 744.092,98.724 C743.264,101.028 740.996,102.432 738.044,102.432 Z M738.728,99.912 C741.86,99.912 743.912,97.644 743.912,94.152 L743.912,93.252 L739.016,93.972 C736.352,94.368 735.2,95.304 735.2,97.068 C735.2,98.832 736.532,99.912 738.728,99.912 Z M755.828,88.104 C756.692,85.584 758.564,83.568 761.3,83.568 C761.516,83.568 761.732,83.568 761.948,83.604 L761.948,86.592 L761.804,86.592 C759.932,86.592 758.708,87.132 757.844,87.996 C756.116,89.724 756.044,92.136 756.044,94.296 L756.044,102 L752.984,102 L752.984,84 L755.828,84 L755.828,88.104 Z M772.316,102.432 C767.24,102.432 763.928,98.868 763.928,93 C763.928,87.132 767.24,83.568 772.316,83.568 C777.392,83.568 780.704,87.132 780.704,93 C780.704,98.868 777.392,102.432 772.316,102.432 Z M772.316,99.768 C775.556,99.768 777.464,97.464 777.464,93 C777.464,88.536 775.556,86.232 772.316,86.232 C769.076,86.232 767.168,88.536 767.168,93 C767.168,97.464 769.076,99.768 772.316,99.768 Z" id="Berlin-Faro"></path>
            <polygon id="|" points="667.412 102.594 667.412 30.68 677.416 30.68 677.416 102.594"></polygon>
        </g>
    </g>
</svg>