[
  {
    "key": "test-1",
    "content": "It was one of the best conferences I've ever been to. The idea of the challenge was really great :+1:",
    "name": "Jason"
  },
  {
    "key": "test-2",
    "content": "Thank you for the great event!",
    "name": "David"
  },
  {
    "key": "test-3",
    "content": "thanks for the cool event and talks, the moderator in berlin was great, keep on!",
    "name": "Robert"
  },
  {
    "key": "test-4",
    "content": "You guys are amazing! From what I see as a visitor of your event I was really impressed. Keep up doing stuff that shares the passion and the knowledge.",
    "name": "Nelson"
  },
  {
    "key": "test-5",
    "content": "Thank you guys for organizing this awesome event for the algarve community. You guys rock.",
    "name": "Jose"
  }
]
